<?xml version="1.0" encoding="utf-8"?>
<!-- Generator: Adobe Illustrator 17.0.0, SVG Export Plug-In . SVG Version: 6.00 Build 0)  -->
<!DOCTYPE svg PUBLIC "-//W3C//DTD SVG 1.1//EN" "http://www.w3.org/Graphics/SVG/1.1/DTD/svg11.dtd">
<svg version="1.1" id="Layer_1" xmlns="http://www.w3.org/2000/svg" xmlns:xlink="http://www.w3.org/1999/xlink" x="0px" y="0px"
	 width="428px" height="512px" viewBox="42 0 428 512" enable-background="new 42 0 428 512" xml:space="preserve">
<path fill="#FFFFFF" d="M187.998,119.999c33.084,0,60-26.916,60-60s-26.916-60-60-60s-60,26.916-60,60
	S154.914,119.999,187.998,119.999z M187.998,40c11.028,0,20,8.972,20,20s-8.972,20-20,20s-20-8.972-20-20S176.971,40,187.998,40z
	 M411.999,483.285c4.812,9.943,0.651,21.903-9.292,26.714c-2.807,1.358-5.775,2.001-8.697,2.001
	c-7.429,0-14.564-4.157-18.017-11.293l-59.861-123.71H181.998c-33.084,0-60-26.916-60-60V198.998c0-33.084,26.916-60,60-60
	s60,26.916,60,60v77.999c0,11.046-8.954,20-20,20c-11.046,0-20-8.954-20-20v-77.999c0-11.028-8.972-20-20-20s-20,8.972-20,20
	v117.999c0,11.028,8.972,20,20,20h146.675c7.669,0,14.663,4.385,18.003,11.289L411.999,483.285z M324.82,482.922
	c5.011,9.844,1.094,21.886-8.75,26.897c-2.907,1.48-6.005,2.181-9.058,2.181c-7.285,0-14.308-3.994-17.839-10.931l-22.437-44.073
	h-84.738c-25.219,0-48.901-6.706-69.359-18.423L80.822,501.07c-3.531,6.936-10.555,10.931-17.839,10.931
	c-3.053,0-6.15-0.701-9.058-2.181c-9.843-5.011-13.761-17.053-8.75-26.897L80.569,413.4c-23.889-25.124-38.571-59.081-38.571-96.402
	V158.999c0-11.046,8.954-20,20-20s20,8.954,20,20v157.999c0,55.14,44.86,99.999,99.999,99.999h96.999
	c7.523,0,14.41,4.222,17.823,10.926L324.82,482.922z M468.969,163.324l-40,119.999c-2.722,8.166-10.365,13.675-18.974,13.675
	H298.997c-11.046,0-20-8.954-20-20c0-11.046,8.954-20,20-20h96.584l35.441-106.324c3.493-10.479,14.817-16.143,25.298-12.649
	C466.799,141.518,472.462,152.845,468.969,163.324L468.969,163.324z"/>
</svg>
