<?xml version="1.0" encoding="utf-8"?>
<!-- Generator: Adobe Illustrator 17.0.0, SVG Export Plug-In . SVG Version: 6.00 Build 0)  -->
<!DOCTYPE svg PUBLIC "-//W3C//DTD SVG 1.1//EN" "http://www.w3.org/Graphics/SVG/1.1/DTD/svg11.dtd">
<svg version="1.1" id="Layer_1" xmlns:svgjs="http://svgjs.com/svgjs"
	 xmlns="http://www.w3.org/2000/svg" xmlns:xlink="http://www.w3.org/1999/xlink" x="0px" y="0px" width="512px" height="512px"
	 viewBox="0 0 512 512" enable-background="new 0 0 512 512" xml:space="preserve">
<g>
	<path fill="#0070C0" d="M370.836,117.043c0-3.797-3.523-6.762-6.301-6.762c-0.648,0-1.297,0.094-1.758,0.465l-23.527,15.281
		c-2.129,1.391-2.871,3.613-2.871,5.188s0.742,3.797,2.871,5.188l23.527,15.281c0.461,0.371,1.109,0.465,1.758,0.465
		c2.777,0,6.301-2.965,6.301-6.762c0-1.574-0.648-2.965-1.668-3.613l-16.305-10.559l16.305-10.559
		C370.184,120.008,370.836,118.617,370.836,117.043z"/>
	<path fill="#0070C0" d="M417.426,85.367c-1.668,0-3.152,0.738-3.891,2.316l-32.512,66.777c-0.277,0.555-0.465,1.203-0.465,1.762
		c0,2.313,2.039,4.906,5.191,4.906c1.758,0,3.52-0.926,4.168-2.313l32.602-66.781c0.277-0.555,0.371-1.203,0.371-1.762
		C422.887,87.313,420.016,85.367,417.426,85.367z"/>
	<path fill="#0070C0" d="M464.199,126.027l-23.523-15.281c-0.465-0.371-1.113-0.465-1.762-0.465c-2.777,0-6.297,2.965-6.297,6.762
		c0,1.574,0.648,2.965,1.668,3.613l16.301,10.559l-16.301,10.559c-1.02,0.648-1.668,2.039-1.668,3.613
		c0,3.797,3.52,6.762,6.297,6.762c0.648,0,1.297-0.094,1.762-0.465l23.523-15.281c2.133-1.391,2.871-3.613,2.871-5.188
		S466.332,127.418,464.199,126.027z"/>
	<path fill="#0070C0" d="M475.734,37.289H314.25C305.906,15.508,284.777,0,260.094,0H151.781C119.824,0,93.82,26.004,93.82,57.961
		v65.816c-6.461,5.566-9.465,14.273-7.875,23.039l4.258,23.43c1.531,8.047,5.805,12.184,9.117,14.234
		c3.707,2.293,7.82,3.051,11.598,3.07v4.164c0,21.125,12.324,44.406,33.813,63.879c4.047,3.664,8.254,7.043,12.543,10.098v12.563
		c0,3.828-2.73,7.113-6.496,7.813c-0.176,0.031-0.348,0.07-0.52,0.113c-0.129,0.035-13.004,3.391-29.836,8.164H65.426
		c-6.184,0-12.148,2.598-16.363,7.121s-6.379,10.66-5.938,16.828l0.148,2.117C18.676,332.746,3.199,354.863,1.723,380
		c-0.004,0.105-0.008,0.211-0.012,0.316L0.004,483.555c-0.094,7.57,2.789,14.707,8.105,20.094C13.434,509.035,20.531,512,28.105,512
		h355.668c7.57,0,14.672-2.965,19.992-8.352s8.203-12.52,8.109-20.125l-1.707-103.207c-0.004-0.105-0.008-0.211-0.016-0.316
		c-1.516-25.863-17.852-48.527-43.703-60.633c-0.473-0.223-0.969-0.449-1.48-0.68l0.027-0.395
		c0.438-6.168-1.727-12.301-5.938-16.828c-4.215-4.523-10.18-7.121-16.363-7.121h-51.238c-16.828-4.773-29.707-8.129-29.836-8.16
		c-0.172-0.047-0.344-0.086-0.52-0.117c-3.766-0.699-6.496-3.984-6.496-7.813v-12.559c4.289-3.059,8.496-6.438,12.543-10.102
		c13.656-12.375,23.613-26.289,29.055-40.211h48.73l-8.512,34.355c-1.418,5.73,0.855,11.52,5.793,14.75
		c2.32,1.52,4.922,2.273,7.512,2.273c2.93,0,5.844-0.961,8.328-2.871l63.148-48.508h54.531c19.762,0,35.836-16.074,35.836-35.836
		V73.125C511.57,53.367,495.496,37.289,475.734,37.289z M300.977,136.734c2.867-0.977,5.582-1.379,7.352-1.539
		c2.355,2.09,3.465,5.531,2.848,8.938l-4.234,23.313c-0.617,3.254-1.867,4.027-2.277,4.281c-0.871,0.539-2.156,0.816-3.695,0.832
		L300.977,136.734z M108.82,57.961C108.82,34.273,128.094,15,151.781,15h108.316c23.688,0,42.961,19.273,42.961,42.961v62.84
		c-3.711,0.656-8.332,1.914-12.844,4.32V79.422c0-16.434-13.371-29.805-29.805-29.805h-20.27c-7.027,0-13.891,2.449-19.332,6.895
		l-1.984,1.625c-3.625,2.965-8.203,4.598-12.887,4.598s-9.258-1.633-12.883-4.594l-1.988-1.629
		c-5.438-4.445-12.305-6.895-19.332-6.895h-20.266c-16.434,0-29.805,13.367-29.805,29.805v45.695
		c-4.512-2.402-9.133-3.664-12.844-4.316V57.961z M107.215,171.727c-0.41-0.254-1.66-1.027-2.266-4.219l-4.246-23.371
		c-0.617-3.406,0.492-6.844,2.84-8.938c1.77,0.16,4.488,0.555,7.359,1.531l0.008,35.828
		C109.375,172.543,108.09,172.266,107.215,171.727z M40.855,491.566c0,1.883,0.258,3.703,0.734,5.434H28.105
		c-3.531,0-6.84-1.383-9.324-3.895c-2.48-2.512-3.82-5.84-3.781-9.336l1.707-103.043c1.109-18.008,11.09-33.621,27.742-43.832
		l9.156,128.473c0.168,2.359,0.707,4.613,1.551,6.711C46.875,474.688,40.855,482.438,40.855,491.566z M354.512,465.367
		l9.305-130.543c18.82,10.098,30.168,26.625,31.355,45.902l1.707,103.012c0.039,3.527-1.305,6.855-3.781,9.367
		c-2.484,2.512-5.793,3.895-9.324,3.895h-13.484c0.48-1.73,0.734-3.551,0.734-5.434c0-10.363-7.754-18.945-17.766-20.254
		C353.934,469.434,354.367,467.441,354.512,465.367z M356.023,491.566c0,2.996-2.438,5.434-5.43,5.434H61.285
		c-2.992,0-5.43-2.438-5.43-5.434c0-2.992,2.438-5.43,5.43-5.43h289.309C353.586,486.137,356.023,488.574,356.023,491.566z
		 M348.082,311.688c1.406,1.512,2.102,3.477,1.953,5.539l-10.484,147.078c-0.273,3.832-3.496,6.832-7.34,6.832H75.906
		c-3.84,0-7.063-3-7.34-6.836l-10.48-147.074c-0.148-2.063,0.547-4.027,1.953-5.539c1.41-1.512,3.32-2.344,5.387-2.344h277.27
		C344.758,309.344,346.672,310.176,348.082,311.688z M246.195,294.344h-80.512c4.102-4.172,6.59-9.883,6.59-16.09v-3.355
		c11.824,6.121,23.574,9.555,33.664,9.555s21.84-3.434,33.668-9.555v3.355C239.605,284.461,242.094,290.172,246.195,294.344z
		 M257.074,244.477c-16.746,15.172-36.816,24.977-51.137,24.977c-14.316,0-34.387-9.805-51.133-24.977
		c-18.359-16.629-28.887-35.863-28.887-52.766l-0.016-47.25c0.098,0,0.195,0.004,0.293,0.004c1.355,0,2.723-0.266,4.031-0.813
		c3.91-1.633,6.438-5.426,6.438-9.66v-54.57c0-8.164,6.641-14.805,14.805-14.805h20.27c3.574,0,7.066,1.246,9.832,3.508l1.992,1.629
		c6.297,5.145,14.242,7.98,22.375,7.98s16.082-2.836,22.379-7.984l1.988-1.625c2.766-2.262,6.262-3.508,9.836-3.508h20.266
		c8.164,0,14.809,6.641,14.809,14.805v54.57c0,4.238,2.523,8.027,6.438,9.66c1.398,0.586,2.871,0.848,4.32,0.809l-0.012,47.254
		C285.965,208.613,275.434,227.848,257.074,244.477z M496.57,179.547c0,11.488-9.344,20.836-20.836,20.836h-57.078
		c-1.652,0-3.258,0.547-4.566,1.555l-62.211,47.785l9.918-40.035c0.555-2.238,0.051-4.609-1.371-6.426s-3.602-2.879-5.906-2.879
		h-54.223c0.441-2.918,0.668-5.813,0.668-8.668v-4.164c3.773-0.02,7.887-0.777,11.594-3.07c3.316-2.051,7.59-6.188,9.129-14.293
		l4.246-23.371c1.594-8.766-1.418-17.477-7.875-23.039V57.961c0-1.91-0.094-3.805-0.277-5.672h157.953
		c11.492,0,20.836,9.348,20.836,20.836V179.547z"/>
	<path fill="#0070C0" d="M205.938,424.367c15.547,0,28.195-12.648,28.195-28.195s-12.648-28.195-28.195-28.195
		s-28.195,12.648-28.195,28.195S190.391,424.367,205.938,424.367z M205.938,382.977c7.277,0,13.195,5.922,13.195,13.195
		c0,7.277-5.918,13.195-13.195,13.195c-7.273,0-13.195-5.918-13.195-13.195C192.742,388.898,198.664,382.977,205.938,382.977z"/>
</g>
</svg>
